module gitlab.com/AlbertLysenco/eve-market

go 1.15

require (
	github.com/BurntSushi/toml v0.3.1
	github.com/gorilla/mux v1.8.0
	github.com/sirupsen/logrus v1.6.0
	github.com/stretchr/testify v1.6.1
)
